[
  {
    "slug": "1password-x-password-manager",
    "license": {
      "tag": "custom",
      "shortName": "1pwd",
      "fullName": "Service Agreement for 1Password users and customers",
      "url": "https://1password.com/legal/terms-of-service/",
      "free": false
    }
  },
  {
    "slug": "adsum-notabs"
  },
  {
    "slug": "anchors-reveal"
  },
  {
    "slug": "auto-tab-discard"
  },
  {
    "slug": "betterttv",
    "license": {
      "tag": "custom",
      "shortName": "betterttv",
      "fullName": "BetterTTV Terms of Service",
      "url": "https://betterttv.com/terms",
      "free": false
    }
  },
  {
    "slug": "bitwarden-password-manager",
    "pname": "bitwarden"
  },
  {
    "slug": "browserpass-ce",
    "pname": "browserpass"
  },
  {
    "slug": "buster-captcha-solver"
  },
  {
    "slug": "canvasblocker"
  },
  {
    "slug": "clearurls"
  },
  {
    "slug": "close-other-windows"
  },
  {
    "slug": "cookie-autodelete"
  },
  {
    "slug": "dark-scroll-for-tweetdeck"
  },
  {
    "slug": "darkreader"
  },
  {
    "slug": "decentraleyes"
  },
  {
    "slug": "disconnect"
  },
  {
    "slug": "duckduckgo-for-firefox",
    "pname": "duckduckgo-privacy-essentials",
    "license": {
      "tag": "predefined",
      "shortName": "asl20"
    }
  },
  {
    "slug": "ecosia-the-green-search",
    "pname": "ecosia"
  },
  {
    "slug": "ether-metamask",
    "pname": "metamask"
  },
  {
    "slug": "export-tabs-urls-and-titles"
  },
  {
    "slug": "facebook-container"
  },
  {
    "slug": "firefox-color"
  },
  {
    "slug": "floccus"
  },
  {
    "slug": "form-history-control"
  },
  {
    "slug": "foxyproxy-standard"
  },
  {
    "slug": "fraidycat"
  },
  {
    "slug": "gesturefy"
  },
  {
    "slug": "ghostery"
  },
  {
    "slug": "google-search-link-fix"
  },
  {
    "slug": "gopass-bridge"
  },
  {
    "slug": "grammarly-1",
    "pname": "grammarly",
    "license": {
      "tag": "custom",
      "shortName": "grammarly",
      "fullName": "Grammarly Terms of Service and License Agreement",
      "url": "https://www.grammarly.com/terms",
      "free": false
    }
  },
  {
    "slug": "greasemonkey"
  },
  {
    "slug": "görans-hemmasnickrade-ordli",
    "pname": "swedish-dictionary"
  },
  {
    "slug": "h264ify"
  },
  {
    "slug": "header-editor"
  },
  {
    "slug": "honey",
    "license": {
      "tag": "custom",
      "shortName": "honeyl",
      "fullName": "Custom License for Honey",
      "url": "https://addons.mozilla.org/en-US/firefox/addon/honey/license/",
      "free": false
    }
  },
  {
    "slug": "https-everywhere",
    "license": {
      "tag": "custom",
      "shortName": "https-everywhere-license",
      "fullName": "Multiple",
      "url": "https://addons.mozilla.org/en-US/firefox/addon/https-everywhere/license/",
      "free": true
    }
  },
  {
    "slug": "i-dont-care-about-cookies"
  },
  {
    "slug": "ipfs-companion"
  },
  {
    "slug": "keepass-helper-url-in-title",
    "pname": "keepass-helper"
  },
  {
    "slug": "keepassxc-browser"
  },
  {
    "slug": "languagetool",
    "license": {
      "tag": "custom",
      "shortName": "allrightsreserved",
      "fullName": "All Rights Reserved",
      "url": "https://languagetool.org/legal/",
      "free": false
    }
  },
  {
    "slug": "lastpass-password-manager",
    "license": {
      "tag": "custom",
      "shortName": "unfree",
      "fullName": "Unfree",
      "url": "https://addons.mozilla.org/en-US/firefox/addon/lastpass-password-manager/license/",
      "free": false
    }
  },
  {
    "slug": "leechblock-ng"
  },
  {
    "slug": "link-cleaner"
  },
  {
    "slug": "linkhints"
  },
  {
    "slug": "mailvelope"
  },
  {
    "slug": "matte-black-red",
    "license": {
      "tag": "predefined",
      "shortName": "cc-by-nc-sa-30"
    }
  },
  {
    "slug": "multi-account-containers"
  },
  {
    "slug": "netflix-1080p-firefox",
    "pname": "netflix-1080p"
  },
  {
    "slug": "news-feed-eradicator"
  },
  {
    "slug": "no-pdf-download"
  },
  {
    "slug": "octolinker"
  },
  {
    "slug": "octotree"
  },
  {
    "slug": "old-reddit-redirect"
  },
  {
    "slug": "open-in-browser"
  },
  {
    "slug": "org-capture"
  },
  {
    "slug": "peertubeify"
  },
  {
    "slug": "plasma-integration"
  },
  {
    "slug": "pocket-select-all",
    "license": {
      "tag": "custom",
      "shortName": "unfree",
      "fullName": "Unfree",
      "url": "https://addons.mozilla.org/en-US/firefox/addon/pocket-select-all/",
      "free": false
    }
  },
  {
    "slug": "polish-spellchecker-dictionary",
    "pname": "polish-dictionary"
  },
  {
    "slug": "privacy-badger17",
    "pname": "privacy-badger"
  },
  {
    "slug": "privacy-possum"
  },
  {
    "slug": "privacy-redirect",
    "license": {
      "tag": "predefined",
      "shortName": "gpl3Plus"
    }
  },
  {
    "slug": "rabattcorner"
  },
  {
    "slug": "react-devtools"
  },
  {
    "slug": "reddit-enhancement-suite"
  },
  {
    "slug": "reddit-moderator-toolbox"
  },
  {
    "slug": "reddit_comment_collapser",
    "pname": "reddit-comment-collapser"
  },
  {
    "slug": "reduxdevtools"
  },
  {
    "slug": "refined-github-",
    "pname": "refined-github"
  },
  {
    "slug": "save-page-we"
  },
  {
    "slug": "search_by_image",
    "pname": "search-by-image"
  },
  {
    "slug": "sidebery"
  },
  {
    "slug": "simple-tab-groups"
  },
  {
    "slug": "styl-us",
    "pname": "stylus"
  },
  {
    "slug": "tab-session-manager"
  },
  {
    "slug": "tabcenter-reborn"
  },
  {
    "slug": "temporary-containers"
  },
  {
    "slug": "terms-of-service-didnt-read",
    "license": {
      "tag": "predefined",
      "shortName": "agpl3Plus"
    }
  },
  {
    "slug": "text-contrast-for-dark-themes"
  },
  {
    "slug": "textern"
  },
  {
    "slug": "to-deepl"
  },
  {
    "slug": "tomato-clock"
  },
  {
    "slug": "torproject-snowflake",
    "pname": "snowflake",
    "license": {
      "tag": "predefined",
      "shortName": "bsd3"
    }
  },
  {
    "slug": "transparent-standalone-image"
  },
  {
    "slug": "tree-style-tab",
    "license": {
      "tag": "custom",
      "shortName": "tree-style-tab",
      "fullName": "Tree Style Tab License, primarily MPL 2.0",
      "url": "https://github.com/piroor/treestyletab/blob/trunk/COPYING.txt",
      "free": true
    }
  },
  {
    "slug": "tridactyl-vim",
    "pname": "tridactyl",
    "license": {
      "tag": "predefined",
      "shortName": "asl20"
    }
  },
  {
    "slug": "ublock-origin"
  },
  {
    "slug": "umatrix"
  },
  {
    "slug": "unpaywall"
  },
  {
    "slug": "videospeed"
  },
  {
    "slug": "view-image"
  },
  {
    "slug": "vim-vixen"
  },
  {
    "slug": "vimium-ff",
    "pname": "vimium"
  },
  {
    "slug": "violentmonkey"
  },
  {
    "slug": "wappalyzer"
  },
  {
    "slug": "web-scrobbler"
  },
  {
    "slug": "zoom-page-we"
  },
  {
    "slug": "zoom-redirector"
  }
]
